<?xml version="1.0" encoding="UTF-8" standalone="no"?>
<!-- Created with Inkscape (http://www.inkscape.org/) -->

<svg
   version="1.1"
   id="svg1835"
   width="170.66667"
   height="170.66667"
   viewBox="0 0 170.66667 170.66667"
   sodipodi:docname="styx-rebrand.svg"
   inkscape:version="1.2.2 (b0a8486541, 2022-12-01)"
   inkscape:export-filename="styx-rebrand.png"
   inkscape:export-xdpi="117"
   inkscape:export-ydpi="117"
   xmlns:inkscape="http://www.inkscape.org/namespaces/inkscape"
   xmlns:sodipodi="http://sodipodi.sourceforge.net/DTD/sodipodi-0.dtd"
   xmlns="http://www.w3.org/2000/svg"
   xmlns:svg="http://www.w3.org/2000/svg">
  <defs
     id="defs1839" />
  <sodipodi:namedview
     id="namedview1837"
     pagecolor="#ffffff"
     bordercolor="#666666"
     borderopacity="1.0"
     inkscape:showpageshadow="2"
     inkscape:pageopacity="0.0"
     inkscape:pagecheckerboard="0"
     inkscape:deskcolor="#d1d1d1"
     showgrid="false"
     inkscape:zoom="1.4142136"
     inkscape:cx="-21.92031"
     inkscape:cy="71.771338"
     inkscape:window-width="1920"
     inkscape:window-height="1018"
     inkscape:window-x="0"
     inkscape:window-y="0"
     inkscape:window-maximized="1"
     inkscape:current-layer="g1841" />
  <g
     inkscape:groupmode="layer"
     inkscape:label="Image"
     id="g1841">
    <path
       style="fill:#009ae5;fill-opacity:1;stroke:#000000;stroke-width:5.96624;stroke-dasharray:none;stroke-opacity:1"
       d="m 81.619134,153.98041 c -0.76697,-0.94115 -2.30006,-3.89779 -3.40687,-6.57027 -1.55531,-3.75539 -3.46885,-5.50504 -8.42488,-7.70321 -5.99921,-2.66086 -6.6931,-2.71086 -10.76642,-0.77572 -2.39467,1.13763 -5.70104,2.06841 -7.3475,2.06841 -1.77461,0 -5.26541,-2.31485 -8.57292,-5.68496 -3.10772,-3.16654 -5.57938,-6.96434 -5.57938,-8.57292 0,-1.58838 0.9308,-4.84723 2.06843,-7.24191 1.93227,-4.06732 1.88443,-4.76876 -0.72683,-10.65587 -2.26575,-5.10815 -3.976139,-6.86624 -9.029049,-9.280823 -6.23378,-2.978888 -6.23378,-2.978888 -6.23378,-12.922628 0,-9.943739 0,-9.943739 6.23378,-12.922624 5.05291,-2.414587 6.763299,-4.172678 9.029049,-9.280824 2.61126,-5.887105 2.6591,-6.588545 0.72683,-10.655876 -1.13763,-2.394665 -2.06843,-5.653516 -2.06843,-7.241891 0,-1.608591 2.47166,-5.406396 5.57938,-8.572927 3.30751,-3.370115 6.79831,-5.68497 8.57292,-5.68497 1.64646,0 4.95283,0.930793 7.3475,2.068431 4.06732,1.93227 4.76877,1.884425 10.65587,-0.726833 5.10815,-2.265747 6.86624,-3.976144 9.28082,-9.029047 2.97889,-6.233789 2.97889,-6.233789 12.92263,-6.233789 9.943746,0 9.943746,0 12.922636,6.233789 2.41458,5.052903 4.17266,6.7633 9.28081,9.029047 5.88711,2.611258 6.58855,2.659103 10.65586,0.726833 2.39468,-1.137638 5.74364,-2.068431 7.44212,-2.068431 1.99158,0 5.27115,2.333797 9.23585,6.57236 3.38122,3.614798 6.14766,6.92 6.14766,7.344894 0,0.424895 -1.16771,3.061448 -2.59493,5.859013 -1.826,3.579266 -2.36389,6.510115 -1.81525,9.890921 0.77964,4.804445 0.77964,4.804445 -7.54725,4.804445 -8.21201,0 -8.41104,-0.08768 -14.42619,-6.354518 -3.35458,-3.494982 -9.08238,-7.820509 -12.72843,-9.612281 -5.33645,-2.622496 -8.568196,-3.239404 -16.572886,-3.163604 -7.4953,0.07096 -11.48979,0.839282 -16.22263,3.120287 -3.45339,1.66437 -8.61213,5.359366 -11.46386,8.211104 -2.85174,2.851737 -6.55058,8.010475 -8.21965,11.463865 -2.33446,4.830126 -3.03467,8.573257 -3.03467,16.222626 0,7.773407 0.69256,11.378421 3.17303,16.516971 1.74516,3.61527 5.33237,8.73256 7.97158,11.37177 2.6392,2.63922 7.73568,6.24413 11.3255,8.01094 5.17247,2.54574 8.59051,3.20668 16.4707,3.18494 7.3504,-0.0203 11.587676,-0.77948 16.247136,-2.91108 3.46687,-1.58601 9.19464,-5.89921 12.72843,-9.58487 6.38336,-6.65769 6.47907,-6.70118 14.75194,-6.70118 8.32689,0 8.32689,0 7.54725,4.80443 -0.54864,3.38083 -0.0109,6.31167 1.81525,9.89093 1.42722,2.79758 2.59493,5.43412 2.59493,5.85901 0,0.4249 -2.76644,3.73009 -6.14766,7.3449 -3.9647,4.23857 -7.24427,6.57235 -9.23585,6.57235 -1.69848,0 -5.04744,-0.93078 -7.44212,-2.06841 -4.06731,-1.93229 -4.76875,-1.88445 -10.65586,0.72682 -5.10815,2.26575 -6.86623,3.97615 -9.28081,9.02904 -2.97889,6.23379 -2.97889,6.23379 -12.384106,6.61916 -6.47941,0.26549 -9.839,-0.14696 -10.79968,-1.32582 z"
       id="path2547" />
  </g>
</svg>
